Lab03-UART/Lab03-UART.vcd
$date
  Thu Sep 27 17:08:02 2018
$end

$version
  Xcore C-Simulator + VcdTrace plugin (interface version: 1.8)
$end

$timescale
  2.000000 ns
$end

$comment
<?xml version="1.0" encoding="UTF-8"?>
<Structure>
    <Date value="Thu Sep 27 17:08:02 2018"/>
    <Hierarchy>
    <Category name="Pads">
        <Signal name="0_X0D00" radix="HEX"/>
        <Signal name="0_X0D01" radix="HEX"/>
        <Signal name="0_X0D02" radix="HEX"/>
        <Signal name="0_X0D03" radix="HEX"/>
        <Signal name="0_X0D04" radix="HEX"/>
        <Signal name="0_X0D05" radix="HEX"/>
        <Signal name="0_X0D06" radix="HEX"/>
        <Signal name="0_X0D07" radix="HEX"/>
        <Signal name="0_X0D08" radix="HEX"/>
        <Signal name="0_X0D09" radix="HEX"/>
        <Signal name="0_X0D10" radix="HEX"/>
        <Signal name="0_X0D11" radix="HEX"/>
        <Signal name="0_X0D12" radix="HEX"/>
        <Signal name="0_X0D13" radix="HEX"/>
        <Signal name="0_X0D14" radix="HEX"/>
        <Signal name="0_X0D15" radix="HEX"/>
        <Signal name="0_X0D16" radix="HEX"/>
        <Signal name="0_X0D17" radix="HEX"/>
        <Signal name="0_X0D18" radix="HEX"/>
        <Signal name="0_X0D19" radix="HEX"/>
        <Signal name="0_X0D20" radix="HEX"/>
        <Signal name="0_X0D21" radix="HEX"/>
        <Signal name="0_X0D22" radix="HEX"/>
        <Signal name="0_X0D23" radix="HEX"/>
        <Signal name="0_X0D24" radix="HEX"/>
        <Signal name="0_X0D25" radix="HEX"/>
        <Signal name="0_X0D26" radix="HEX"/>
        <Signal name="0_X0D27" radix="HEX"/>
        <Signal name="0_X0D28" radix="HEX"/>
        <Signal name="0_X0D29" radix="HEX"/>
        <Signal name="0_X0D30" radix="HEX"/>
        <Signal name="0_X0D31" radix="HEX"/>
        <Signal name="0_X0D32" radix="HEX"/>
        <Signal name="0_X0D33" radix="HEX"/>
        <Signal name="0_X0D34" radix="HEX"/>
        <Signal name="0_X0D35" radix="HEX"/>
        <Signal name="0_X0D36" radix="HEX"/>
        <Signal name="0_X0D37" radix="HEX"/>
        <Signal name="0_X0D38" radix="HEX"/>
        <Signal name="0_X0D39" radix="HEX"/>
        <Signal name="0_X0D40" radix="HEX"/>
        <Signal name="0_X0D41" radix="HEX"/>
        <Signal name="0_X0D42" radix="HEX"/>
        <Signal name="0_X0D43" radix="HEX"/>
        <Signal name="0_X0D49" radix="HEX"/>
        <Signal name="0_X0D50" radix="HEX"/>
        <Signal name="0_X0D51" radix="HEX"/>
        <Signal name="0_X0D52" radix="HEX"/>
        <Signal name="0_X0D53" radix="HEX"/>
        <Signal name="0_X0D54" radix="HEX"/>
        <Signal name="0_X0D55" radix="HEX"/>
        <Signal name="0_X0D56" radix="HEX"/>
        <Signal name="0_X0D57" radix="HEX"/>
        <Signal name="0_X0D58" radix="HEX"/>
        <Signal name="0_X0D61" radix="HEX"/>
        <Signal name="0_X0D62" radix="HEX"/>
        <Signal name="0_X0D63" radix="HEX"/>
        <Signal name="0_X0D64" radix="HEX"/>
        <Signal name="0_X0D65" radix="HEX"/>
        <Signal name="0_X0D66" radix="HEX"/>
        <Signal name="0_X0D67" radix="HEX"/>
        <Signal name="0_X0D68" radix="HEX"/>
        <Signal name="0_X0D69" radix="HEX"/>
        <Signal name="0_X0D70" radix="HEX"/>
    </Category>
    </Hierarchy>
    <ValueAliases>
    </ValueAliases>
    <SignalDocs>
        <SignalDoc name=".*Pad\d+" description="The value on the pad">
            <ValueDocs>
            </ValueDocs>
        </SignalDoc>
    </SignalDocs>
    <SignalAliases>
        <SignalAliasMap coreName="tile[0]">
            <Entry name="XS1_PORT_1A" alias="PORT_SPI_MISO"/>
            <Entry name="XS1_PORT_1B" alias="PORT_SPI_SS"/>
            <Entry name="XS1_PORT_1C" alias="PORT_SPI_CLK"/>
            <Entry name="XS1_PORT_1D" alias="PORT_SPI_MOSI"/>
        </SignalAliasMap>
    </SignalAliases>
</Structure>
$end

$var wire 1 paa0 0_X0D00 $end
$var wire 1 paa1 0_X0D01 $end
$var wire 1 paa2 0_X0D02 $end
$var wire 1 paa3 0_X0D03 $end
$var wire 1 paa4 0_X0D04 $end
$var wire 1 paa5 0_X0D05 $end
$var wire 1 paa6 0_X0D06 $end
$var wire 1 paa7 0_X0D07 $end
$var wire 1 paa8 0_X0D08 $end
$var wire 1 paa9 0_X0D09 $end
$var wire 1 paa10 0_X0D10 $end
$var wire 1 paa11 0_X0D11 $end
$var wire 1 paa12 0_X0D12 $end
$var wire 1 paa13 0_X0D13 $end
$var wire 1 paa14 0_X0D14 $end
$var wire 1 paa15 0_X0D15 $end
$var wire 1 paa16 0_X0D16 $end
$var wire 1 paa17 0_X0D17 $end
$var wire 1 paa18 0_X0D18 $end
$var wire 1 paa19 0_X0D19 $end
$var wire 1 paa20 0_X0D20 $end
$var wire 1 paa21 0_X0D21 $end
$var wire 1 paa22 0_X0D22 $end
$var wire 1 paa23 0_X0D23 $end
$var wire 1 paa24 0_X0D24 $end
$var wire 1 paa25 0_X0D25 $end
$var wire 1 paa26 0_X0D26 $end
$var wire 1 paa27 0_X0D27 $end
$var wire 1 paa28 0_X0D28 $end
$var wire 1 paa29 0_X0D29 $end
$var wire 1 paa30 0_X0D30 $end
$var wire 1 paa31 0_X0D31 $end
$var wire 1 paa32 0_X0D32 $end
$var wire 1 paa33 0_X0D33 $end
$var wire 1 paa34 0_X0D34 $end
$var wire 1 paa35 0_X0D35 $end
$var wire 1 paa36 0_X0D36 $end
$var wire 1 paa37 0_X0D37 $end
$var wire 1 paa38 0_X0D38 $end
$var wire 1 paa39 0_X0D39 $end
$var wire 1 paa40 0_X0D40 $end
$var wire 1 paa41 0_X0D41 $end
$var wire 1 paa42 0_X0D42 $end
$var wire 1 paa43 0_X0D43 $end
$var wire 1 paa44 0_X0D49 $end
$var wire 1 paa45 0_X0D50 $end
$var wire 1 paa46 0_X0D51 $end
$var wire 1 paa47 0_X0D52 $end
$var wire 1 paa48 0_X0D53 $end
$var wire 1 paa49 0_X0D54 $end
$var wire 1 paa50 0_X0D55 $end
$var wire 1 paa51 0_X0D56 $end
$var wire 1 paa52 0_X0D57 $end
$var wire 1 paa53 0_X0D58 $end
$var wire 1 paa54 0_X0D61 $end
$var wire 1 paa55 0_X0D62 $end
$var wire 1 paa56 0_X0D63 $end
$var wire 1 paa57 0_X0D64 $end
$var wire 1 paa58 0_X0D65 $end
$var wire 1 paa59 0_X0D66 $end
$var wire 1 paa60 0_X0D67 $end
$var wire 1 paa61 0_X0D68 $end
$var wire 1 paa62 0_X0D69 $end
$var wire 1 paa63 0_X0D70 $end

$enddefinitions $end

$dumpvars
0paa0
0paa1
0paa2
0paa3
0paa4
0paa5
0paa6
0paa7
0paa8
0paa9
0paa10
0paa11
0paa12
0paa13
0paa14
0paa15
0paa16
0paa17
0paa18
0paa19
0paa20
0paa21
0paa22
0paa23
0paa24
0paa25
0paa26
0paa27
0paa28
0paa29
0paa30
0paa31
0paa32
0paa33
0paa34
0paa35
0paa36
0paa37
0paa38
0paa39
0paa40
0paa41
0paa42
0paa43
0paa44
0paa45
0paa46
0paa47
0paa48
0paa49
0paa50
0paa51
0paa52
0paa53
0paa54
0paa55
0paa56
0paa57
0paa58
0paa59
0paa60
0paa61
0paa62
0paa63
$end

#3053
1paa0

#3054
1paa10

#3783
0paa0

#3784
0paa10

#472513
1paa0

#472514
1paa10

#524713
0paa0

#524714
0paa10

#628883
1paa0

#628884
1paa10

#785123
0paa0

#785124
0paa10

#837203
1paa0

#837204
1paa10

#889283
0paa0

#889284
0paa10

#993443
1paa0

#993444
1paa10

#1045643
0paa0

#1045644
0paa10

#1149813
1paa0

#1149814
1paa10

#1201893
0paa0

#1201894
0paa10

#1306053
1paa0

#1306054
1paa10

#1462293
0paa0

#1462294
0paa10

#1514373
1paa0

#1514374
1paa10

#1566573
0paa0

#1566574
0paa10

#1618658
1paa0

#1618659
1paa10

#1670743
0paa0

#1670744
0paa10

#1722823
1paa0

#1722824
1paa10

#1774903
0paa0

#1774904
0paa10

#1879063
1paa0

#1879064
1paa10

#1983223
0paa0

#1983224
0paa10

#2035303
1paa0

#2035304
1paa10

#2087503
0paa0

#2087504
0paa10

#2191673
1paa0

#2191674
1paa10

#2295833
0paa0

#2295834
0paa10

#2347913
1paa0

#2347914
1paa10

#2504153
0paa0

#2504154
0paa10

#2556233
1paa0

#2556234
1paa10

#2608433
0paa0

#2608434
0paa10

#2712603
1paa0

#2712604
1paa10

#2868843
0paa0

#2868844
0paa10

#2920923
1paa0

#2920924
1paa10

#3025083
0paa0

#3025084
0paa10

#3077163
1paa0

#3077164
1paa10

#3129363
0paa0

#3129364
0paa10

#3181448
1paa0

#3181449
1paa10

#3233533
0paa0

#3233534
0paa10

#3285613
1paa0

#3285614
1paa10

#3337693
0paa0

#3337694
0paa10

#3441853
1paa0

#3441854
1paa10

#3546013
0paa0

#3546014
0paa10

#3598093
1paa0

#3598094
1paa10

#3650293
0paa0

#3650294
0paa10

#3806543
1paa0

#3806544
1paa10

#3858623
0paa0

#3858624
0paa10

#4014863
1paa0

#4014864
1paa10

#4066943
0paa0

#4066944
0paa10

#4119023
1paa0

#4119024
1paa10

#4171223
0paa0

#4171224
0paa10

#4483713
1paa0

#4483714
1paa10

#4535793
0paa0

#4535794
0paa10

#4639953
1paa0

#4639954
1paa10

#4692153
0paa0

#4692154
0paa10

#4848403
1paa0

#4848404
1paa10

#4952563
0paa0

#4952564
0paa10

#5004643
1paa0

#5004644
1paa10

#5056723
0paa0

#5056724
0paa10

#5160883
1paa0

#5160884
1paa10

#5213083
0paa0

#5213084
0paa10

#5265168
1paa0

#5265169
1paa10

#5473493
0paa0

#5473494
0paa10

#5525573
1paa0

#5525574
1paa10

#5629733
0paa0

#5629734
0paa10

#5681813
1paa0

#5681814
1paa10

#5734013
0paa0

#5734014
0paa10

#5890263
1paa0

#5890264
1paa10

#5994423
0paa0

#5994424
0paa10

#6046503
1paa0

#6046504
1paa10

#6150663
0paa0

#6150664
0paa10

#6202743
1paa0

#6202744
1paa10

#6254943
0paa0

#6254944
0paa10

#6411193
1paa0

#6411194
1paa10

#6515353
0paa0

#6515354
0paa10

#6567433
1paa0

#6567434
1paa10

#6671593
0paa0

#6671594
0paa10

#6723673
1paa0

#6723674
1paa10

#6775873
0paa0

#6775874
0paa10

#6827958
1paa0

#6827959
1paa10

#6880043
0paa0

#6880044
0paa10

#6932123
1paa0

#6932124
1paa10

#6984203
0paa0

#6984204
0paa10

#7088363
1paa0

#7088364
1paa10

#7192523
0paa0

#7192524
0paa10

#7244603
1paa0

#7244604
1paa10

#7296803
0paa0

#7296804
0paa10

#7505133
1paa0

#7505134
1paa10

#7557213
0paa0

#7557214
0paa10

#7661373
1paa0

#7661374
1paa10

#7713453
0paa0

#7713454
0paa10

#7765533
1paa0

#7765534
1paa10

